Biostat 203B Homework 5
…
Engine-Specific Arguments:
  standardize = FALSE

Computational engine: glmnet 

Step 3: Tune the grid and do cross-validation folds

logit_param_grid <- grid_regular(
  penalty(range = c(-6, 3)), 
  mixture(),                               
  levels = c(100, 5)) %>%
  print()

# A tibble: 500 × 2
      penalty mixture
        <dbl>   <dbl>
 1 0.000001         0
 2 0.00000123       0
 3 0.00000152       0
 4 0.00000187       0
 5 0.00000231       0
 6 0.00000285       0
 7 0.00000351       0
 8 0.00000433       0
 9 0.00000534       0
10 0.00000658       0
# ℹ 490 more rows
…
Step 5: Visualize CV result

logit_fit |>
  # aggregate metrics from 5-fold cross-validation
  collect_metrics() |>
  print(width = Inf) |>
  filter(.metric == "roc_auc") |>
  ggplot(mapping = aes(x = penalty, y = mean, 
                       color = factor(mixture))) +
  geom_point() +
  labs(x = "Penalty", y = "CV AUC") +
  scale_x_log10()

# A tibble: 1,000 × 8
      penalty mixture .metric  .estimator  mean     n std_err
        <dbl>   <dbl> <chr>    <chr>      <dbl> <int>   <dbl>
 1 0.000001         0 accuracy binary     0.579     5 0.00200
 2 0.000001         0 roc_auc  binary     0.610     5 0.00149
 3 0.00000123       0 accuracy binary     0.579     5 0.00200
 4 0.00000123       0 roc_auc  binary     0.610     5 0.00149
 5 0.00000152       0 accuracy binary     0.579     5 0.00200
 6 0.00000152       0 roc_auc  binary     0.610     5 0.00149
 7 0.00000187       0 accuracy binary     0.579     5 0.00200
 8 0.00000187       0 roc_auc  binary     0.610     5 0.00149
 9 0.00000231       0 accuracy binary     0.579     5 0.00200
10 0.00000231       0 roc_auc  binary     0.610     5 0.00149
   .config               
   <chr>                 
 1 Preprocessor1_Model001
 2 Preprocessor1_Model001
 3 Preprocessor1_Model002
 4 Preprocessor1_Model002
 5 Preprocessor1_Model003
 6 Preprocessor1_Model003
 7 Preprocessor1_Model004
 8 Preprocessor1_Model004
 9 Preprocessor1_Model005
10 Preprocessor1_Model005
# ℹ 990 more rows
…
Computational engine: ranger 

Step 4: Tuning grid

rf_param_grid <- grid_regular(
  trees(range = c(100L, 500L)), 
  mtry(range = c(1L, 5L)),
  levels = c(5, 5)
  )

rf_param_grid

# A tibble: 25 × 2
   trees  mtry
   <int> <int>
 1   100     1
 2   200     1
 3   300     1
 4   400     1
 5   500     1
 6   100     2
 7   200     2
 8   300     2
 9   400     2
10   500     2
# ℹ 15 more rows
…
Step 6: Visualize CV results

rf_fit |>
  collect_metrics() %>%
  print(width = Inf) %>%
  filter(.metric == "roc_auc") %>%
  ggplot(mapping = aes(x = trees, y = mean, 
                       color = factor(mtry))) +
  geom_point() +
  labs(x = "Num. of Trees", y = "CV AUC")

# A tibble: 50 × 8
    mtry trees .metric  .estimator  mean     n std_err .config              
   <int> <int> <chr>    <chr>      <dbl> <int>   <dbl> <chr>                
 1     1   100 accuracy binary     0.580     5 0.00283 Preprocessor1_Model01
 2     1   100 roc_auc  binary     0.626     5 0.00331 Preprocessor1_Model01
 3     1   200 accuracy binary     0.581     5 0.00238 Preprocessor1_Model02
 4     1   200 roc_auc  binary     0.627     5 0.00231 Preprocessor1_Model02
 5     1   300 accuracy binary     0.582     5 0.00320 Preprocessor1_Model03
 6     1   300 roc_auc  binary     0.626     5 0.00252 Preprocessor1_Model03
 7     1   400 accuracy binary     0.582     5 0.00261 Preprocessor1_Model04
 8     1   400 roc_auc  binary     0.627     5 0.00238 Preprocessor1_Model04
 9     1   500 accuracy binary     0.584     5 0.00211 Preprocessor1_Model05
10     1   500 roc_auc  binary     0.628     5 0.00202 Preprocessor1_Model05
# ℹ 40 more rows
…
Computational engine: xgboost 

Step 4: Tuning grid

xgb_param_grid <- grid_regular(
  tree_depth(range = c(1L, 3L)),
  learn_rate(range = c(-5, 2), trans = log10_trans()),
  levels = c(3, 10)
  )
xgb_param_grid

# A tibble: 30 × 2
   tree_depth learn_rate
        <int>      <dbl>
 1          1  0.00001  
 2          2  0.00001  
 3          3  0.00001  
 4          1  0.0000599
 5          2  0.0000599
 6          3  0.0000599
 7          1  0.000359 
 8          2  0.000359 
 9          3  0.000359 
10          1  0.00215  
# ℹ 20 more rows
…
Step 6: Visualize CV results

xgb_fit |>
  collect_metrics() |>
  print(width = Inf) |>
  filter(.metric == "roc_auc") |>
  ggplot(mapping = aes(x = learn_rate, y = mean, 
                       color = factor(tree_depth))) +
  geom_point() +
  labs(x = "Learning Rate", y = "CV AUC") +
  scale_x_log10()

# A tibble: 60 × 8
   tree_depth learn_rate .metric  .estimator  mean     n std_err
        <int>      <dbl> <chr>    <chr>      <dbl> <int>   <dbl>
 1          1  0.00001   accuracy binary     0.547     5 0.00275
 2          1  0.00001   roc_auc  binary     0.542     5 0.00204
 3          2  0.00001   accuracy binary     0.559     5 0.00230
 4          2  0.00001   roc_auc  binary     0.560     5 0.00209
 5          3  0.00001   accuracy binary     0.565     5 0.00190
 6          3  0.00001   roc_auc  binary     0.573     5 0.00245
 7          1  0.0000599 accuracy binary     0.547     5 0.00275
 8          1  0.0000599 roc_auc  binary     0.542     5 0.00204
 9          2  0.0000599 accuracy binary     0.559     5 0.00230
10          2  0.0000599 roc_auc  binary     0.569     5 0.00380
   .config              
   <chr>                
 1 Preprocessor1_Model01
 2 Preprocessor1_Model01
 3 Preprocessor1_Model02
 4 Preprocessor1_Model02
 5 Preprocessor1_Model03
 6 Preprocessor1_Model03
 7 Preprocessor1_Model04
 8 Preprocessor1_Model04
 9 Preprocessor1_Model05
10 Preprocessor1_Model05
# ℹ 50 more rows
…
